%YAML 1.1
%TAG !u! tag:unity3d.com,2011:
--- !u!114 &11400000
MonoBehaviour:
  m_ObjectHideFlags: 0
  m_CorrespondingSourceObject: {fileID: 0}
  m_PrefabInstance: {fileID: 0}
  m_PrefabAsset: {fileID: 0}
  m_GameObject: {fileID: 0}
  m_Enabled: 1
  m_EditorHideFlags: 0
  m_Script: {fileID: 11500000, guid: ef9cf3752eb9a5a43bd55d11d17304c3, type: 3}
  m_Name: PJ_SO
  m_EditorClassIdentifier: 
  speed: 3
  vidaActual: 10000
  vidaMax: 10000
  granadas: 2
  helicopter: 2
  round: 0
  exp: 16454
