%YAML 1.1
%TAG !u! tag:unity3d.com,2011:
--- !u!74 &7400000
AnimationClip:
  m_ObjectHideFlags: 0
  m_CorrespondingSourceObject: {fileID: 0}
  m_PrefabInstance: {fileID: 0}
  m_PrefabAsset: {fileID: 0}
  m_Name: GAMEOVER
  serializedVersion: 7
  m_Legacy: 0
  m_Compressed: 0
  m_UseHighQualityCurve: 1
  m_RotationCurves: []
  m_CompressedRotationCurves: []
  m_EulerCurves: []
  m_PositionCurves: []
  m_ScaleCurves: []
  m_FloatCurves: []
  m_PPtrCurves:
  - serializedVersion: 2
    curve:
    - time: 0
      value: {fileID: 21300000, guid: f4640796f5a45a046bee66c96668afbc, type: 3}
    - time: 0.016666668
      value: {fileID: 21300000, guid: a5b9a91046badbf49bf55b05d4669db4, type: 3}
    - time: 0.033333335
      value: {fileID: 21300000, guid: 330f6ad82e0b1d04f8b2a582ca27ac4c, type: 3}
    - time: 0.05
      value: {fileID: 21300000, guid: 1d2f431709d820247bc6656d3a8760e4, type: 3}
    - time: 0.06666667
      value: {fileID: 21300000, guid: d37be5a02cbd6954593fc8be0a4a576d, type: 3}
    - time: 0.083333336
      value: {fileID: 21300000, guid: 2aab1f84b3dd459449b1050f094afb17, type: 3}
    - time: 0.1
      value: {fileID: 21300000, guid: afeee371f66df864f8447faafefe8e92, type: 3}
    - time: 0.11666667
      value: {fileID: 21300000, guid: 9707ab0f0457ef74c89481c758bb5129, type: 3}
    - time: 0.13333334
      value: {fileID: 21300000, guid: 0619f2b0ae90acf4cb44cdbc57e78595, type: 3}
    - time: 0.15
      value: {fileID: 21300000, guid: 16f2c9c045ed073408c35f061a8f725e, type: 3}
    - time: 0.16666667
      value: {fileID: 21300000, guid: 6906cb709808db946b5e60a2d9304332, type: 3}
    - time: 0.18333334
      value: {fileID: 21300000, guid: 4f21ff9706f889e42944f98d76e2a4e6, type: 3}
    - time: 0.2
      value: {fileID: 21300000, guid: 87b47d129a347e549b272ee6c28b0de3, type: 3}
    - time: 0.21666667
      value: {fileID: 21300000, guid: d8a31bd52b37e304db74708f6fca8ae9, type: 3}
    - time: 0.23333333
      value: {fileID: 21300000, guid: 500437f50678e954fa7ae07b54217123, type: 3}
    - time: 0.25
      value: {fileID: 21300000, guid: a4df70e6770675f4da7156ac7b83a3a9, type: 3}
    - time: 0.26666668
      value: {fileID: 21300000, guid: 891347b5800a725448e92ee617834cec, type: 3}
    - time: 0.28333333
      value: {fileID: 21300000, guid: 43a2e820a9fefaa49a90387a5f163c4c, type: 3}
    - time: 0.3
      value: {fileID: 21300000, guid: bfab37a6de1d18f4ba7d47a89fa6f24a, type: 3}
    - time: 0.31666666
      value: {fileID: 21300000, guid: 4ec757661bd7fdb4fb94bd64f42e79b1, type: 3}
    - time: 0.33333334
      value: {fileID: 21300000, guid: 0139c3f1a1a88674196050f0e18b8884, type: 3}
    - time: 0.35
      value: {fileID: 21300000, guid: 4afee93af0b68084d83539de19599507, type: 3}
    - time: 0.36666667
      value: {fileID: 21300000, guid: ffa5fce75cf6a0041bc347080cc35575, type: 3}
    - time: 0.38333333
      value: {fileID: 21300000, guid: 9b09f9cf176482b45a54719dfa512469, type: 3}
    attribute: m_Sprite
    path: 
    classID: 212
    script: {fileID: 0}
    flags: 2
  m_SampleRate: 60
  m_WrapMode: 0
  m_Bounds:
    m_Center: {x: 0, y: 0, z: 0}
    m_Extent: {x: 0, y: 0, z: 0}
  m_ClipBindingConstant:
    genericBindings:
    - serializedVersion: 2
      path: 0
      attribute: 0
      script: {fileID: 0}
      typeID: 212
      customType: 23
      isPPtrCurve: 1
      isIntCurve: 0
      isSerializeReferenceCurve: 0
    pptrCurveMapping:
    - {fileID: 21300000, guid: f4640796f5a45a046bee66c96668afbc, type: 3}
    - {fileID: 21300000, guid: a5b9a91046badbf49bf55b05d4669db4, type: 3}
    - {fileID: 21300000, guid: 330f6ad82e0b1d04f8b2a582ca27ac4c, type: 3}
    - {fileID: 21300000, guid: 1d2f431709d820247bc6656d3a8760e4, type: 3}
    - {fileID: 21300000, guid: d37be5a02cbd6954593fc8be0a4a576d, type: 3}
    - {fileID: 21300000, guid: 2aab1f84b3dd459449b1050f094afb17, type: 3}
    - {fileID: 21300000, guid: afeee371f66df864f8447faafefe8e92, type: 3}
    - {fileID: 21300000, guid: 9707ab0f0457ef74c89481c758bb5129, type: 3}
    - {fileID: 21300000, guid: 0619f2b0ae90acf4cb44cdbc57e78595, type: 3}
    - {fileID: 21300000, guid: 16f2c9c045ed073408c35f061a8f725e, type: 3}
    - {fileID: 21300000, guid: 6906cb709808db946b5e60a2d9304332, type: 3}
    - {fileID: 21300000, guid: 4f21ff9706f889e42944f98d76e2a4e6, type: 3}
    - {fileID: 21300000, guid: 87b47d129a347e549b272ee6c28b0de3, type: 3}
    - {fileID: 21300000, guid: d8a31bd52b37e304db74708f6fca8ae9, type: 3}
    - {fileID: 21300000, guid: 500437f50678e954fa7ae07b54217123, type: 3}
    - {fileID: 21300000, guid: a4df70e6770675f4da7156ac7b83a3a9, type: 3}
    - {fileID: 21300000, guid: 891347b5800a725448e92ee617834cec, type: 3}
    - {fileID: 21300000, guid: 43a2e820a9fefaa49a90387a5f163c4c, type: 3}
    - {fileID: 21300000, guid: bfab37a6de1d18f4ba7d47a89fa6f24a, type: 3}
    - {fileID: 21300000, guid: 4ec757661bd7fdb4fb94bd64f42e79b1, type: 3}
    - {fileID: 21300000, guid: 0139c3f1a1a88674196050f0e18b8884, type: 3}
    - {fileID: 21300000, guid: 4afee93af0b68084d83539de19599507, type: 3}
    - {fileID: 21300000, guid: ffa5fce75cf6a0041bc347080cc35575, type: 3}
    - {fileID: 21300000, guid: 9b09f9cf176482b45a54719dfa512469, type: 3}
  m_AnimationClipSettings:
    serializedVersion: 2
    m_AdditiveReferencePoseClip: {fileID: 0}
    m_AdditiveReferencePoseTime: 0
    m_StartTime: 0
    m_StopTime: 0.4
    m_OrientationOffsetY: 0
    m_Level: 0
    m_CycleOffset: 0
    m_HasAdditiveReferencePose: 0
    m_LoopTime: 1
    m_LoopBlend: 0
    m_LoopBlendOrientation: 0
    m_LoopBlendPositionY: 0
    m_LoopBlendPositionXZ: 0
    m_KeepOriginalOrientation: 0
    m_KeepOriginalPositionY: 1
    m_KeepOriginalPositionXZ: 0
    m_HeightFromFeet: 0
    m_Mirror: 0
  m_EditorCurves: []
  m_EulerEditorCurves: []
  m_HasGenericRootTransform: 0
  m_HasMotionFloatCurves: 0
  m_Events: []
